{
    "parent": "builtin/generated",
    "textures": {
        "layer0": "exnihilo2:items/astrolabe_jade"
    },
    "display": {
        "thirdperson": {
            "rotation": [ 0, 90, -35 ],
            "translation": [ 0, 1.25, -3.5 ],
            "scale": [ 0.65, 0.65, 0.65 ]
        },
        "firstperson": {
            "rotation": [ 0, -135, 25 ],
            "translation": [ 0, 4, 2 ],
            "scale": [ 1.0, 1.0, 1.0 ]
        }
    }
}